%YAML 1.1
%TAG !u! tag:unity3d.com,2011:
--- !u!1045 &1
EditorBuildSettings:
  m_ObjectHideFlags: 0
  serializedVersion: 2
  m_Scenes:
  - enabled: 1
    path: Assets/Scenes/MainMenu.unity
    guid: 86ba49ac75b3fe64ca1ea806625f4d5b
  - enabled: 1
    path: Assets/Scenes/Cinematic.unity
    guid: 71c9f4d9fcc061745b72be3314b92e91
  - enabled: 1
    path: Assets/Scenes/WorldMap.unity
    guid: 1c9867a481b74554baad6d656b08e859
  m_configObjects: {}
